Single_Cycle_Processor/single_cycle_processor.vcd
$date
	Fri May  8 12:33:08 2026
$end
$version
	Icarus Verilog
$end
$timescale
	1ps
$end
$scope module tb_single_cycle_processor $end
$var wire 32 ! write_back_data [31:0] $end
$var wire 32 " read_data2 [31:0] $end
$var wire 32 # read_data1 [31:0] $end
$var wire 32 $ pc_out [31:0] $end
$var wire 32 % instruction [31:0] $end
$var wire 32 & data_read_data [31:0] $end
$var wire 32 ' alu_result [31:0] $end
$var reg 1 ( clk $end
$var reg 1 ) reset $end
$scope module uut $end
$var wire 1 ( clk $end
$var wire 32 * pc_out [31:0] $end
$var wire 1 ) reset $end
$var wire 1 + zero $end
$var wire 32 , write_back_data [31:0] $end
$var wire 5 - rs2 [4:0] $end
$var wire 5 . rs1 [4:0] $end
$var wire 32 / read_data2 [31:0] $end
$var wire 32 0 read_data1 [31:0] $end
$var wire 5 1 rd [4:0] $end
$var wire 32 2 pc_plus4 [31:0] $end
$var wire 32 3 pc_next [31:0] $end
$var wire 32 4 pc_current [31:0] $end
$var wire 7 5 opcode [6:0] $end
$var wire 32 6 instruction [31:0] $end
$var wire 32 7 immediate [31:0] $end
$var wire 7 8 funct7 [6:0] $end
$var wire 3 9 funct3 [2:0] $end
$var wire 32 : data_read_data [31:0] $end
$var wire 32 ; branch_target [31:0] $end
$var wire 32 < alu_result [31:0] $end
$var wire 4 = alu_operation [3:0] $end
$var wire 32 > alu_input2 [31:0] $end
$var wire 1 ? RegWrite $end
$var wire 1 @ MemtoReg $end
$var wire 1 A MemWrite $end
$var wire 1 B MemRead $end
$var wire 1 C Branch $end
$var wire 1 D ALUSrc $end
$var wire 2 E ALUOp [1:0] $end
$scope module alu_control_unit $end
$var wire 7 F Funct7 [6:0] $end
$var wire 3 G Funct3 [2:0] $end
$var wire 2 H ALUOp [1:0] $end
$var reg 4 I Operation [3:0] $end
$upscope $end
$scope module alu_src_mux $end
$var wire 32 J y [31:0] $end
$var wire 1 D sel $end
$var wire 32 K b [31:0] $end
$var wire 32 L a [31:0] $end
$upscope $end
$scope module alu_unit $end
$var wire 4 M alu_control [3:0] $end
$var wire 32 N b [31:0] $end
$var wire 1 + zero $end
$var wire 32 O a [31:0] $end
$var reg 32 P result [31:0] $end
$upscope $end
$scope module branch_adder $end
$var wire 32 Q sum [31:0] $end
$var wire 32 R b [31:0] $end
$var wire 32 S a [31:0] $end
$upscope $end
$scope module control_unit $end
$var wire 7 T opcode [6:0] $end
$var reg 2 U ALUOp [1:0] $end
$var reg 1 D ALUSrc $end
$var reg 1 C Branch $end
$var reg 1 B MemRead $end
$var reg 1 A MemWrite $end
$var reg 1 @ MemtoReg $end
$var reg 1 ? RegWrite $end
$upscope $end
$scope module data_memory_unit $end
$var wire 1 B MemRead $end
$var wire 1 A MemWrite $end
$var wire 32 V address [31:0] $end
$var wire 1 ( clk $end
$var wire 32 W write_data [31:0] $end
$var wire 32 X read_data [31:0] $end
$var integer 32 Y i [31:0] $end
$upscope $end
$scope module decoder_unit $end
$var wire 5 Z rs2 [4:0] $end
$var wire 5 [ rs1 [4:0] $end
$var wire 5 \ rd [4:0] $end
$var wire 7 ] opcode [6:0] $end
$var wire 32 ^ instruction [31:0] $end
$var wire 7 _ funct7 [6:0] $end
$var wire 3 ` funct3 [2:0] $end
$upscope $end
$scope module immediate_generator_unit $end
$var wire 7 a opcode [6:0] $end
$var wire 32 b instruction [31:0] $end
$var reg 32 c immediate [31:0] $end
$upscope $end
$scope module instruction_memory_unit $end
$var wire 32 d address [31:0] $end
$var reg 32 e instruction [31:0] $end
$var integer 32 f i [31:0] $end
$upscope $end
$scope module mem_to_reg_mux $end
$var wire 32 g a [31:0] $end
$var wire 32 h b [31:0] $end
$var wire 1 @ sel $end
$var wire 32 i y [31:0] $end
$upscope $end
$scope module pc_increment_adder $end
$var wire 32 j b [31:0] $end
$var wire 32 k sum [31:0] $end
$var wire 32 l a [31:0] $end
$upscope $end
$scope module pc_unit $end
$var wire 32 m PC_in [31:0] $end
$var wire 1 ( clk $end
$var wire 1 ) reset $end
$var reg 32 n PC_out [31:0] $end
$upscope $end
$scope module register_file_unit $end
$var wire 1 ? RegWrite $end
$var wire 1 ( clk $end
$var wire 5 o read_reg1 [4:0] $end
$var wire 5 p read_reg2 [4:0] $end
$var wire 1 ) reset $end
$var wire 32 q write_data [31:0] $end
$var wire 5 r write_reg [4:0] $end
$var wire 32 s read_data2 [31:0] $end
$var wire 32 t read_data1 [31:0] $end
$var integer 32 u i [31:0] $end
$upscope $end
$upscope $end
$upscope $end
$enddefinitions $end
$comment Show the parameter values. $end
$dumpall
$end
#0
$dumpvars
b100000 u
b0 t
b0 s
b1 r
b101 q
b101 p
b0 o
b0 n
b100 m
b0 l
b100 k
b100 j
b101 i
b0 h
b101 g
b10000 f
b10100000000000010010011 e
b0 d
b101 c
b10100000000000010010011 b
b10011 a
b0 `
b0 _
b10100000000000010010011 ^
b10011 ]
b1 \
b0 [
b101 Z
b100000 Y
b0 X
b0 W
b101 V
b11 U
b10011 T
b100 S
b101 R
b1001 Q
b101 P
b0 O
b101 N
b10 M
b0 L
b101 K
b101 J
b10 I
b11 H
b0 G
b0 F
b11 E
1D
0C
0B
0A
0@
1?
b101 >
b10 =
b101 <
b1001 ;
b0 :
b0 9
b0 8
b101 7
b10100000000000010010011 6
b10011 5
b0 4
b100 3
b100 2
b1 1
b0 0
b0 /
b0 .
b101 -
b101 ,
0+
b0 *
1)
0(
b101 '
b0 &
b10100000000000010010011 %
b0 $
b0 #
b0 "
b101 !
$end
#5000
b100000 u
1(
#10000
0(
#12000
0)
#15000
b1010 !
b1010 ,
b1010 i
b1010 q
b1010 '
b1010 <
b1010 P
b1010 V
b1010 g
b1010 >
b1010 J
b1010 N
b10 1
b10 \
b10 r
b1010 -
b1010 Z
b1010 p
b1010 7
b1010 K
b1010 R
b1010 c
b1000 3
b1000 m
b101000000000000100010011 %
b101000000000000100010011 6
b101000000000000100010011 ^
b101000000000000100010011 b
b101000000000000100010011 e
b10010 ;
b10010 Q
b1000 2
b1000 S
b1000 k
b100 $
b100 *
b100 4
b100 d
b100 l
b100 n
1(
#20000
0(
#25000
b1111 !
b1111 ,
b1111 i
b1111 q
b1111 '
b1111 <
b1111 P
b1111 V
b1111 g
b1010 "
b1010 /
b1010 L
b1010 W
b1010 s
b101 #
b101 0
b101 O
b101 t
b10 E
b10 H
b10 U
1?
0D
b1010 >
b1010 J
b1010 N
b110011 a
b11 1
b11 \
b11 r
b10 -
b10 Z
b10 p
b1 .
b1 [
b1 o
b110011 5
b110011 T
b110011 ]
b0 7
b0 K
b0 R
b0 c
b1100 3
b1100 m
b1000001000000110110011 %
b1000001000000110110011 6
b1000001000000110110011 ^
b1000001000000110110011 b
b1000001000000110110011 e
b1100 ;
b1100 Q
b1100 2
b1100 S
b1100 k
b1000 $
b1000 *
b1000 4
b1000 d
b1000 l
b1000 n
1(
#30000
0(
#35000
b1010 !
b1010 ,
b1010 i
b1010 q
b101 >
b101 J
b101 N
b1010 '
b1010 <
b1010 P
b1010 V
b1010 g
b110 =
b110 I
b110 M
b101 "
b101 /
b101 L
b101 W
b101 s
b1111 #
b1111 0
b1111 O
b1111 t
b100000 8
b100000 F
b100000 _
b100 1
b100 \
b100 r
b1 -
b1 Z
b1 p
b11 .
b11 [
b11 o
b10000 3
b10000 m
b1000000000100011000001000110011 %
b1000000000100011000001000110011 6
b1000000000100011000001000110011 ^
b1000000000100011000001000110011 b
b1000000000100011000001000110011 e
b10000 ;
b10000 Q
b10000 2
b10000 S
b10000 k
b1100 $
b1100 *
b1100 4
b1100 d
b1100 l
b1100 n
1(
#40000
0(
#45000
b1010 >
b1010 J
b1010 N
b0 =
b0 I
b0 M
b1010 "
b1010 /
b1010 L
b1010 W
b1010 s
b0 8
b0 F
b0 _
b111 9
b111 G
b111 `
b101 1
b101 \
b101 r
b10 -
b10 Z
b10 p
b10100 3
b10100 m
b1000011111001010110011 %
b1000011111001010110011 6
b1000011111001010110011 ^
b1000011111001010110011 b
b1000011111001010110011 e
b10100 ;
b10100 Q
b10100 2
b10100 S
b10100 k
b10000 $
b10000 *
b10000 4
b10000 d
b10000 l
b10000 n
1(
#50000
0(
#55000
b1 =
b1 I
b1 M
b1010 #
b1010 0
b1010 O
b1010 t
b110 9
b110 G
b110 `
b110 1
b110 \
b110 r
b100 .
b100 [
b100 o
b11000 3
b11000 m
b1000100110001100110011 %
b1000100110001100110011 6
b1000100110001100110011 ^
b1000100110001100110011 b
b1000100110001100110011 e
b11000 ;
b11000 Q
b11000 2
b11000 S
b11000 k
b10100 $
b10100 *
b10100 4
b10100 d
b10100 l
b10100 n
1(
#60000
0(
#65000
b0 !
b0 ,
b0 i
b0 q
1+
b0 '
b0 <
b0 P
b0 V
b0 g
b0 >
b0 J
b0 N
b10 =
b10 I
b10 M
b1111 "
b1111 /
b1111 L
b1111 W
b1111 s
b0 #
b0 0
b0 O
b0 t
1A
1D
b0 E
b0 H
b0 U
0?
b100011 a
b10 9
b10 G
b10 `
b0 1
b0 \
b0 r
b11 -
b11 Z
b11 p
b0 .
b0 [
b0 o
b100011 5
b100011 T
b100011 ]
b11100 3
b11100 m
b1100000010000000100011 %
b1100000010000000100011 6
b1100000010000000100011 ^
b1100000010000000100011 b
b1100000010000000100011 e
b11100 ;
b11100 Q
b11100 2
b11100 S
b11100 k
b11000 $
b11000 *
b11000 4
b11000 d
b11000 l
b11000 n
1(
#70000
0(
#75000
b1111 !
b1111 ,
b1111 i
b1111 q
b1111 &
b1111 :
b1111 X
b1111 h
1+
b0 '
b0 <
b0 P
b0 V
b0 g
b0 "
b0 /
b0 L
b0 W
b0 s
1B
1?
1@
0A
1D
b0 >
b0 J
b0 N
b11 a
b111 1
b111 \
b111 r
b0 -
b0 Z
b0 p
b11 5
b11 T
b11 ]
b0 7
b0 K
b0 R
b0 c
b100000 3
b100000 m
b10001110000011 %
b10001110000011 6
b10001110000011 ^
b10001110000011 b
b10001110000011 e
b100000 ;
b100000 Q
b100000 2
b100000 S
b100000 k
b11100 $
b11100 *
b11100 4
b11100 d
b11100 l
b11100 n
1(
#80000
0(
#85000
b0 &
b0 :
b0 X
b0 h
b0 !
b0 ,
b0 i
b0 q
1+
b0 '
b0 <
b0 P
b0 V
b0 g
b110 =
b110 I
b110 M
b1111 "
b1111 /
b1111 L
b1111 W
b1111 s
b1111 #
b1111 0
b1111 O
b1111 t
b1 E
b1 H
b1 U
1C
0B
0?
0@
0D
b1111 >
b1111 J
b1111 N
b1100011 a
b0 9
b0 G
b0 `
b100 1
b100 \
b100 r
b11 -
b11 Z
b11 p
b111 .
b111 [
b111 o
b1100011 5
b1100011 T
b1100011 ]
b100 7
b100 K
b100 R
b100 c
b101000 3
b101000 m
b1100111000001001100011 %
b1100111000001001100011 6
b1100111000001001100011 ^
b1100111000001001100011 b
b1100111000001001100011 e
b101000 ;
b101000 Q
b100100 2
b100100 S
b100100 k
b100000 $
b100000 *
b100000 4
b100000 d
b100000 l
b100000 n
1(
#90000
0(
#95000
b11001 !
b11001 ,
b11001 i
b11001 q
0+
b11001 '
b11001 <
b11001 P
b11001 V
b11001 g
b1010 >
b1010 J
b1010 N
b10 =
b10 I
b10 M
b1010 "
b1010 /
b1010 L
b1010 W
b1010 s
1?
b10 E
b10 H
b10 U
0C
b110011 a
b1001 1
b1001 \
b1001 r
b100 -
b100 Z
b100 p
b11 .
b11 [
b11 o
b110011 5
b110011 T
b110011 ]
b0 7
b0 K
b0 R
b0 c
b101100 3
b101100 m
b10000011000010010110011 %
b10000011000010010110011 6
b10000011000010010110011 ^
b10000011000010010110011 b
b10000011000010010110011 e
b101100 ;
b101100 Q
b101100 2
b101100 S
b101100 k
b101000 $
b101000 *
b101000 4
b101000 d
b101000 l
b101000 n
1(
#100000
0(
#105000
1+
b0 !
b0 ,
b0 i
b0 q
b0 >
b0 J
b0 N
b0 '
b0 <
b0 P
b0 V
b0 g
b0 "
b0 /
b0 L
b0 W
b0 s
b0 #
b0 0
b0 O
b0 t
b0 E
b0 H
b0 U
0?
b0 a
b0 1
b0 \
b0 r
b0 -
b0 Z
b0 p
b0 .
b0 [
b0 o
b0 5
b0 T
b0 ]
b110000 3
b110000 m
b0 %
b0 6
b0 ^
b0 b
b0 e
b110000 ;
b110000 Q
b110000 2
b110000 S
b110000 k
b101100 $
b101100 *
b101100 4
b101100 d
b101100 l
b101100 n
1(
#110000
0(
#115000
b110100 3
b110100 m
b110100 ;
b110100 Q
b110100 2
b110100 S
b110100 k
b110000 $
b110000 *
b110000 4
b110000 d
b110000 l
b110000 n
1(
#120000
0(
#125000
b111000 3
b111000 m
b111000 ;
b111000 Q
b111000 2
b111000 S
b111000 k
b110100 $
b110100 *
b110100 4
b110100 d
b110100 l
b110100 n
1(
#130000
0(
#135000
b111100 3
b111100 m
b111100 ;
b111100 Q
b111100 2
b111100 S
b111100 k
b111000 $
b111000 *
b111000 4
b111000 d
b111000 l
b111000 n
1(
#140000
0(
#145000
b1000000 3
b1000000 m
b1000000 ;
b1000000 Q
b1000000 2
b1000000 S
b1000000 k
b111100 $
b111100 *
b111100 4
b111100 d
b111100 l
b111100 n
1(
#150000
0(
#155000
b1000100 3
b1000100 m
b1000100 ;
b1000100 Q
b1000100 2
b1000100 S
b1000100 k
b1000000 $
b1000000 *
b1000000 4
b1000000 d
b1000000 l
b1000000 n
1(
#160000
0(
#165000
b1001000 3
b1001000 m
b1001000 ;
b1001000 Q
b1001000 2
b1001000 S
b1001000 k
b1000100 $
b1000100 *
b1000100 4
b1000100 d
b1000100 l
b1000100 n
1(
#170000
0(
#175000
b1001100 3
b1001100 m
b1001100 ;
b1001100 Q
b1001100 2
b1001100 S
b1001100 k
b1001000 $
b1001000 *
b1001000 4
b1001000 d
b1001000 l
b1001000 n
1(
#180000
0(
#185000
b1010000 3
b1010000 m
b1010000 ;
b1010000 Q
b1010000 2
b1010000 S
b1010000 k
b1001100 $
b1001100 *
b1001100 4
b1001100 d
b1001100 l
b1001100 n
1(
#190000
0(
#195000
b1010100 3
b1010100 m
b1010100 ;
b1010100 Q
b1010100 2
b1010100 S
b1010100 k
b1010000 $
b1010000 *
b1010000 4
b1010000 d
b1010000 l
b1010000 n
1(
#200000
0(
#205000
b1011000 3
b1011000 m
b1011000 ;
b1011000 Q
b1011000 2
b1011000 S
b1011000 k
b1010100 $
b1010100 *
b1010100 4
b1010100 d
b1010100 l
b1010100 n
1(
