Labs/inst_mem.vcd
$date
	Thu Apr  2 09:36:12 2026
$end
$version
	Icarus Verilog
$end
$timescale
	1ps
$end
$scope module stimulus $end
$var wire 32 ! Instruction_Code [31:0] $end
$var reg 32 " PC [31:0] $end
$var reg 1 # reset $end
$scope module uut $end
$var wire 32 $ PC [31:0] $end
$var wire 1 # reset $end
$var wire 32 % Instruction_Code [31:0] $end
$upscope $end
$upscope $end
$enddefinitions $end
$comment Show the parameter values. $end
$dumpall
$end
#0
$dumpvars
bx %
b0 $
0#
b0 "
bx !
$end
#20000
b100101000000001100110011 !
b100101000000001100110011 %
1#
#60000
b1000001001110010000001110110011 !
b1000001001110010000001110110011 %
b100 "
b100 $
#80000
b11010110100000001010110011 !
b11010110100000001010110011 %
b1000 "
b1000 $
#100000
b1011110110100111000110011 !
b1011110110100111000110011 %
b1100 "
b1100 $
#120000
b1100111000001111010110011 !
b1100111000001111010110011 %
b10000 "
b10000 $
#140000
b1101111010101111100110011 !
b1101111010101111100110011 %
b10100 "
b10100 $
#160000
b110101100111111110110011 !
b110101100111111110110011 %
b11000 "
b11000 $
#180000
b111101110110100010110011 !
b111101110110100010110011 %
b11100 "
b11100 $
